…
Income.

``` r
pew %>% 
  count(income, income2)
```

    #> # A tibble: 11 x 3
    #>    income            income2                  n
    #>    <fct>             <fct>                <int>
    #>  1 less than $10,000 "less than $20,000"   1570
    #>  2 $10,000-$19,999   "less than $20,000"   2307
    #>  3 $20,000-$29,999   "$20,000 to $29,999"  2840
    #>  4 $30,000-$39,999   "$30,000 to $49,999"  2878
    #>  5 $40,000-$49,000   "$30,000 to $49,999"  2756
    #>  6 $50,000-$74,999   "$50,000 to $74,999"  4708
    #>  7 $75,000-$99,999   "$75,000+"            3687
    #>  8 $100,000-$149,999 "$75,000+"            3236
    #>  9 $150,000+         "dk\\refused"         2462
    #> 10 dk/refused         <NA>                 4350
    #> # … with 1 more row
…
pew <- 
  pew %>% 
  mutate(income = na_if(income, "dk/refused") %>% fct_recode(!!! income_recode))
```

Party identification.

``` r
pew %>% 
  count(party, partyln, sort = TRUE)
```

    #> # A tibble: 16 x 3
    #>    party         partyln             n
    #>    <fct>         <fct>           <int>
    #>  1 democrat      <NA>            10647
    #>  2 republican    <NA>             8769
    #>  3 independent   lean democrat    4023
    #>  4 independent   lean republican  3465
    #>  5 independent   other/dk         2210
    #>  6 dk            other/dk          533
    #>  7 no preference other/dk          452
    #>  8 <NA>          <NA>              407
    #>  9 no preference lean democrat     246
    #> 10 no preference lean republican   175
    #> # … with 6 more rows
…
``` r
pew %>% 
  count(party, partyln, party_5, sort = TRUE)
```

    #> # A tibble: 16 x 4
    #>    party         partyln         party_5             n
    #>    <fct>         <fct>           <fct>           <int>
    #>  1 democrat      <NA>            Democrat        10647
    #>  2 republican    <NA>            Republican       8769
    #>  3 independent   lean democrat   Lean Democrat    4023
    #>  4 independent   lean republican Lean Republican  3465
    #>  5 independent   other/dk        Independent      2210
    #>  6 dk            other/dk        <NA>              533
    #>  7 no preference other/dk        <NA>              452
    #>  8 <NA>          <NA>            <NA>              407
    #>  9 no preference lean democrat   Lean Democrat     246
    #> 10 no preference lean republican Lean Republican   175
    #> # … with 6 more rows
…
