…
# 19 Causal inference using direct regression

## 19.5 Challenges of interpreting regression coefficients as treatment effects

Data from a meta-analysis of studies of incentives in sample surveys.

``` r
incentives <- read_csv(file_incentives)

incentives
```

    #> # A tibble: 62 x 5
    #>    rr_diff value prepay  gift burden
    #>      <dbl> <dbl>  <dbl> <dbl>  <dbl>
    #>  1       3  1.24      1     0      0
    #>  2       6  2.47      1     1      0
    #>  3       9 14.7       0     0      1
    #>  4       4 24.6       0     0      1
    #>  5       6 43.1       0     0      1
    #>  6      13 17.3       0     0      1
    #>  7      10 21.6       0     0      1
    #>  8      15 43.2       0     0      1
    #>  9      16 10.3       0     0      1
    #> 10      -1  5.65      0     0      1
    #> # … with 52 more rows
…
