…
About 34% of the classes are lower division.

`couse_id`

``` r
beauty %>% 
  count(course_id, sort = TRUE) %>% 
  mutate(prop = n / sum(n))
```

    #> # A tibble: 31 x 3
    #>    course_id     n   prop
    #>    <fct>     <int>  <dbl>
    #>  1 0           306 0.661 
    #>  2 4            19 0.0410
    #>  3 21           14 0.0302
    #>  4 22           11 0.0238
    #>  5 3             8 0.0173
    #>  6 9             8 0.0173
    #>  7 30            8 0.0173
    #>  8 17            7 0.0151
    #>  9 6             6 0.0130
    #> 10 19            6 0.0130
    #> # … with 21 more rows
…
