…
# 3 Some basic methods in mathematics and probability

## 3.2 Graphing a line

Data

``` r
mile <- read_csv(file_mile)

mile
```

    #> # A tibble: 32 x 6
    #>       yr month   min   sec  year seconds
    #>    <dbl> <dbl> <dbl> <dbl> <dbl>   <dbl>
    #>  1  1913     5     4  14.4 1913.    254.
    #>  2  1915     7     4  12.6 1916.    253.
    #>  3  1923     8     4  10.4 1924.    250.
    #>  4  1931    10     4   9.2 1932.    249.
    #>  5  1933     7     4   7.6 1934.    248.
    #>  6  1934     6     4   6.8 1934.    247.
    #>  7  1937     8     4   6.4 1938.    246.
    #>  8  1942     7     4   6.2 1943.    246.
    #>  9  1942     7     4   6.2 1943.    246.
    #> 10  1942     9     4   4.6 1943.    245.
    #> # … with 22 more rows
…
