…
earnings %>% 
  select(height, sex, earn, earn_pos)
```

    #> # A tibble: 1,816 x 4
    #>    height sex     earn earn_pos
    #>     <dbl> <chr>  <dbl> <lgl>   
    #>  1     74 Male   50000 TRUE    
    #>  2     66 Female 60000 TRUE    
    #>  3     64 Female 30000 TRUE    
    #>  4     65 Female 25000 TRUE    
    #>  5     63 Female 50000 TRUE    
    #>  6     68 Female 62000 TRUE    
    #>  7     63 Female 51000 TRUE    
    #>  8     64 Female  9000 TRUE    
    #>  9     62 Female 29000 TRUE    
    #> 10     73 Male   32000 TRUE    
    #> # … with 1,806 more rows
…
