…
earnings %>% 
  select(height, weight, sex, ethnicity)
```

    #> # A tibble: 1,816 x 4
    #>    height weight sex    ethnicity
    #>     <dbl>  <dbl> <chr>  <chr>    
    #>  1     74    210 Male   White    
    #>  2     66    125 Female White    
    #>  3     64    126 Female White    
    #>  4     65    200 Female White    
    #>  5     63    110 Female Other    
    #>  6     68    165 Female Black    
    #>  7     63    190 Female White    
    #>  8     64    125 Female White    
    #>  9     62    200 Female White    
    #> 10     73    230 Male   White    
    #> # … with 1,806 more rows
…
<img src="height_and_weight_tv_files/figure-gfm/unnamed-chunk-12-1.png" width="100%" />

# 10 Linear regression with multiple predictions

## 10.4 Indicator variables

Data

``` r
earnings %>% 
  select(height, weight, sex, ethnicity)
```

    #> # A tibble: 1,816 x 4
    #>    height weight sex    ethnicity
    #>     <dbl>  <dbl> <chr>  <chr>    
    #>  1     74    210 Male   White    
    #>  2     66    125 Female White    
    #>  3     64    126 Female White    
    #>  4     65    200 Female White    
    #>  5     63    110 Female Other    
    #>  6     68    165 Female Black    
    #>  7     63    190 Female White    
    #>  8     64    125 Female White    
    #>  9     62    200 Female White    
    #> 10     73    230 Male   White    
    #> # … with 1,806 more rows
…
