…
mortality
```

    #> # A tibble: 1,200 x 6
    #>     year   age gender region    deaths population
    #>    <dbl> <dbl> <chr>  <chr>      <dbl>      <dbl>
    #>  1  1999    45 Female Northeast    552     322705
    #>  2  1999    45 Female Midwest      758     421345
    #>  3  1999    45 Female South       1058     525692
    #>  4  1999    45 Female West         632     316418
    #>  5  1999    45 Male   Northeast    968     318574
    #>  6  1999    45 Male   Midwest     1215     421959
    #>  7  1999    45 Male   South       2012     519520
    #>  8  1999    45 Male   West        1109     320180
    #>  9  1999    46 Female Northeast    572     309366
    #> 10  1999    46 Female Midwest      817     401367
    #> # … with 1,190 more rows
…
