…
votes
```

    #> # A tibble: 162 x 6
    #>    name_1        name_2         voters votes vote_prop_cum vote_prop_new
    #>    <chr>         <chr>           <dbl> <dbl>         <dbl>         <dbl>
    #>  1 Othelia Jones Clotelia Smith    600   208        0.347         0.347 
    #>  2 Othelia Jones Clotelia Smith   1200   416        0.347         0.347 
    #>  3 Othelia Jones Clotelia Smith   2444   867        0.355         0.363 
    #>  4 Othelia Jones Clotelia Smith   3444  1259        0.366         0.392 
    #>  5 Othelia Jones Clotelia Smith   4444  1610        0.362         0.351 
    #>  6 Othelia Jones Clotelia Smith   5553  2020        0.364         0.370 
    #>  7 Roger Toppin  Earl Coppin       600    55        0.0917        0.0917
    #>  8 Roger Toppin  Earl Coppin      1200   106        0.0883        0.085 
    #>  9 Roger Toppin  Earl Coppin      2444   215        0.0880        0.0876
    #> 10 Roger Toppin  Earl Coppin      3444   313        0.0909        0.098 
    #> # … with 152 more rows
…
``` r
voters <- 
  votes %>% 
  pull(voters) %>% 
  unique() %>% 
  sort()
voters_total <- max(voters)

votes %>% 
  filter(voters == voters_total) %>% 
  select(starts_with("name"), votes) %>% 
  arrange(desc(votes))
```

    #> # A tibble: 27 x 3
    #>    name_1          name_2           votes
    #>    <chr>           <chr>            <dbl>
    #>  1 Al Shapiro      Hal Spitzer       3040
    #>  2 Marie Heath     Margie Best       2300
    #>  3 Craig Williams  Greg Stevens      2176
    #>  4 Saul Weber      Josh Walker       2131
    #>  5 Othelia Jones   Clotelia Smith    2020
    #>  6 Tom Barrett     Dave Barron       1973
    #>  7 Alonzo Newton   Alphonse Preston  1855
    #>  8 Tony Illis      Andy Willis       1571
    #>  9 Alan Berger     <NA>              1519
    #> 10 Ruben Berkowitz <NA>              1346
    #> # … with 17 more rows
…
