…
### Fitting the model in R

Data

``` r
heights <- 
  file_heights %>% 
  read.table(header = TRUE) %>% 
  as_tibble()

heights
```

    #> # A tibble: 5,524 x 2
    #>    daughter_height mother_height
    #>              <dbl>         <dbl>
    #>  1            52.5          59.5
    #>  2            52.5          59.5
    #>  3            53.5          59.5
    #>  4            53.5          59.5
    #>  5            55.5          59.5
    #>  6            55.5          59.5
    #>  7            55.5          59.5
    #>  8            55.5          59.5
    #>  9            56.5          58.5
    #> 10            56.5          58.5
    #> # … with 5,514 more rows
…
