…
The coefficients for both methods and all years.

``` r
coefs <- 
  coefs %>% 
  select(!c(data, fit)) %>% 
  unnest(col = coefs)

coefs
```

    #> # A tibble: 104 x 5
    #>     year method var            coef     se
    #>    <int> <chr>  <chr>         <dbl>  <dbl>
    #>  1  1952 glm    (Intercept)  0.102  0.195 
    #>  2  1952 glm    female       0.0583 0.123 
    #>  3  1952 glm    black       -1.66   0.362 
    #>  4  1952 glm    income       0.0801 0.0538
    #>  5  1956 glm    (Intercept) -0.0468 0.187 
    #>  6  1956 glm    female       0.251  0.120 
    #>  7  1956 glm    black       -0.839  0.308 
    #>  8  1956 glm    income       0.108  0.0529
    #>  9  1960 glm    (Intercept) -0.143  0.226 
    #> 10  1960 glm    female       0.236  0.137 
    #> # … with 94 more rows
…
