…
coefs
```

    #> # A tibble: 117 x 4
    #>     year var            coef     se
    #>    <int> <chr>         <dbl>  <dbl>
    #>  1  1976 (Intercept)  1.10   0.387 
    #>  2  1976 real_ideo    0.588  0.0407
    #>  3  1976 race_adj    -1.09   0.190 
    #>  4  1976 age30 - 44  -0.0387 0.145 
    #>  5  1976 age45 - 64  -0.0514 0.144 
    #>  6  1976 age65+       0.449  0.188 
    #>  7  1976 educ1        0.278  0.0601
    #>  8  1976 female       0.133  0.109 
    #>  9  1976 income       0.171  0.0569
    #> 10  1978 (Intercept)  1.72   0.352 
    #> # … with 107 more rows
…
