…
Data

Human Development Index data.

``` r
hdi <- 
  file_hdi %>% 
  read.table(header = TRUE) %>% 
  as_tibble() %>% 
  select(state, hdi, hdi_rank = rank, canada_dist = canada.dist)

hdi
```

    #> # A tibble: 51 x 4
    #>    state              hdi hdi_rank canada_dist
    #>    <chr>            <dbl>    <int>       <int>
    #>  1 Connecticut      0.962        1           2
    #>  2 Massachusetts    0.961        2           2
    #>  3 New Jersey       0.961        3           2
    #>  4 Washington, D.C. 0.96         4           4
    #>  5 Maryland         0.96         5           3
    #>  6 Hawaii           0.959        6           2
    #>  7 New York         0.959        7           1
    #>  8 New Hampshire    0.958        8           1
    #>  9 Minnesota        0.958        9           1
    #> 10 Rhode Island     0.958       10           3
    #> # … with 41 more rows
…
income
```

    #> # A tibble: 50 x 4
    #>    state       state_abbr income_2000 income_2000_rank
    #>    <chr>       <chr>            <dbl>            <int>
    #>  1 Alabama     AL              21656.               44
    #>  2 Alaska      AK              27210.               15
    #>  3 Arizona     AZ              23381.               37
    #>  4 Arkansas    AR              19978.               48
    #>  5 California  CA              29581.                8
    #>  6 Colorado    CO              30406.                7
    #>  7 Connecticut CT              37808.                1
    #>  8 Delaware    DE              28128.               13
    #>  9 Florida     FL              25978.               20
    #> 10 Georgia     GA              25502.               26
    #> # … with 40 more rows
…
``` r
setdiff(hdi$state, income$state)
```

    #> [1] "Washington, D.C."

``` r
hdi_income <- 
  hdi %>% 
  full_join(income, by = "state")

hdi_income
```

    #> # A tibble: 51 x 7
    #>    state        hdi hdi_rank canada_dist state_abbr income_2000 income_2000_rank
    #>    <chr>      <dbl>    <int>       <int> <chr>            <dbl>            <int>
    #>  1 Connectic… 0.962        1           2 CT              37808.                1
    #>  2 Massachus… 0.961        2           2 MA              34401.                3
    #>  3 New Jersey 0.961        3           2 NJ              34963.                2
    #>  4 Washingto… 0.96         4           4 <NA>               NA                NA
    #>  5 Maryland   0.96         5           3 MD              31213.                5
    #>  6 Hawaii     0.959        6           2 HI              25892.               22
    #>  7 New York   0.959        7           1 NY              31799.                4
    #>  8 New Hamps… 0.958        8           1 NH              30431.                6
    #>  9 Minnesota  0.958        9           1 MN              29173.               10
    #> 10 Rhode Isl… 0.958       10           3 RI              26620.               18
    #> # … with 41 more rows
…
