…
### Simple scatterplots

Data

``` r
health <- 
  file_health %>% 
  read.table(header = TRUE) %>% 
  as_tibble()

health
```

    #> # A tibble: 30 x 3
    #>    country   spending lifespan
    #>    <chr>        <int>    <dbl>
    #>  1 Australia     3357     81.4
    #>  2 Austria       3763     80.1
    #>  3 Belgium       3595     79.8
    #>  4 Canada        3895     80.7
    #>  5 Czech         1626     77  
    #>  6 Denmark       3512     78.4
    #>  7 Finland       2840     79.5
    #>  8 France        3601     81  
    #>  9 Germany       3588     80  
    #> 10 Greece        2727     79.5
    #> # … with 20 more rows
…
