…
## 1.2 Why learn regression?

Data

``` r
hibbs <- 
  file_hibbs %>% 
  read.table(header = TRUE) %>% 
  as_tibble()

hibbs
```

    #> # A tibble: 16 x 5
    #>     year growth  vote inc_party_candidate other_candidate
    #>    <int>  <dbl> <dbl> <chr>               <chr>          
    #>  1  1952   2.4   44.6 Stevenson           Eisenhower     
    #>  2  1956   2.89  57.8 Eisenhower          Stevenson      
    #>  3  1960   0.85  49.9 Nixon               Kennedy        
    #>  4  1964   4.21  61.3 Johnson             Goldwater      
    #>  5  1968   3.02  49.6 Humphrey            Nixon          
    #>  6  1972   3.62  61.8 Nixon               McGovern       
    #>  7  1976   1.08  49.0 Ford                Carter         
    #>  8  1980  -0.39  44.7 Carter              Reagan         
    #>  9  1984   3.86  59.2 Reagan              Mondale        
    #> 10  1988   2.27  53.9 Bush, Sr.           Dukakis        
    #> # … with 6 more rows
…
### Fitting a linear model to data

Data

``` r
hibbs <- 
  file_hibbs %>% 
  read.table(header = TRUE) %>% 
  as_tibble()

hibbs
```

    #> # A tibble: 16 x 5
    #>     year growth  vote inc_party_candidate other_candidate
    #>    <int>  <dbl> <dbl> <chr>               <chr>          
    #>  1  1952   2.4   44.6 Stevenson           Eisenhower     
    #>  2  1956   2.89  57.8 Eisenhower          Stevenson      
    #>  3  1960   0.85  49.9 Nixon               Kennedy        
    #>  4  1964   4.21  61.3 Johnson             Goldwater      
    #>  5  1968   3.02  49.6 Humphrey            Nixon          
    #>  6  1972   3.62  61.8 Nixon               McGovern       
    #>  7  1976   1.08  49.0 Ford                Carter         
    #>  8  1980  -0.39  44.7 Carter              Reagan         
    #>  9  1984   3.86  59.2 Reagan              Mondale        
    #> 10  1988   2.27  53.9 Bush, Sr.           Dukakis        
    #> # … with 6 more rows
…
