…
### Data from golf puts

Data

``` r
golf <- 
  file_golf %>% 
  read_table2(skip = 2) %>% 
  mutate(prob_se = sqrt((y / n) * (1 - y / n) / n))

golf
```

    #> # A tibble: 19 x 4
    #>        x     n     y prob_se
    #>    <dbl> <dbl> <dbl>   <dbl>
    #>  1     2  1443  1346 0.00659
    #>  2     3   694   577 0.0142 
    #>  3     4   455   337 0.0205 
    #>  4     5   353   208 0.0262 
    #>  5     6   272   149 0.0302 
    #>  6     7   256   136 0.0312 
    #>  7     8   240   111 0.0322 
    #>  8     9   217    69 0.0316 
    #>  9    10   200    67 0.0334 
    #> 10    11   237    75 0.0302 
    #> # … with 9 more rows
…
