…
## 11.5 Example: predictive simulation to check the fit of a time-series model

Data

``` r
unemployment <- 
  file_unemployment %>% 
  read_table2() %>% 
  mutate(y_lag = lag(y))

unemployment
```

    #> # A tibble: 70 x 3
    #>     year     y y_lag
    #>    <dbl> <dbl> <dbl>
    #>  1  1947   3.9  NA  
    #>  2  1948   3.8   3.9
    #>  3  1949   5.9   3.8
    #>  4  1950   5.3   5.9
    #>  5  1951   3.3   5.3
    #>  6  1952   3     3.3
    #>  7  1953   2.9   3  
    #>  8  1954   5.5   2.9
    #>  9  1955   4.4   5.5
    #> 10  1956   4.1   4.4
    #> # … with 60 more rows
…
y_rep <- 
  sims %>% 
  pmap_dfr(
    ~ unemployment_sim(intercept = ..1, slope = ..2, sigma = ..3),
    .id = "rep"
  ) %>% 
  mutate(rep = as.integer(rep))

y_rep
```

    #> # A tibble: 280,000 x 3
    #>      rep  year     y
    #>    <int> <int> <dbl>
    #>  1     1  1947  3.9 
    #>  2     1  1948  3.11
    #>  3     1  1949  1.76
    #>  4     1  1950  4.73
    #>  5     1  1951  4.46
    #>  6     1  1952  3.49
    #>  7     1  1953  5.45
    #>  8     1  1954  7.82
    #>  9     1  1955  5.86
    #> 10     1  1956  8.12
    #> # … with 279,990 more rows
…
