…
## 1.8 Exercises

Data

``` r
helicopters <- 
  file_helicopters %>% 
  read.table(header = TRUE) %>% 
  as_tibble(.name_repair = str_to_lower)

helicopters
```

    #> # A tibble: 20 x 4
    #>    helicopter_id width_cm length_cm time_sec
    #>            <int>    <dbl>     <dbl>    <dbl>
    #>  1             1      4.6       8.2     1.64
    #>  2             1      4.6       8.2     1.74
    #>  3             1      4.6       8.2     1.68
    #>  4             1      4.6       8.2     1.62
    #>  5             1      4.6       8.2     1.68
    #>  6             1      4.6       8.2     1.7 
    #>  7             1      4.6       8.2     1.62
    #>  8             1      4.6       8.2     1.66
    #>  9             1      4.6       8.2     1.69
    #> 10             1      4.6       8.2     1.62
    #> # … with 10 more rows
