…
### Demonstration: political attitudes as a function of age

Data

``` r
naes <- 
  file_naes %>% 
  read_csv() %>% 
  select(!X1)

naes
```

    #> # A tibble: 81,422 x 6
    #>      age gender race    gayFavorFederalMarri… gayFavorStateMarri… gayKnowSomeone
    #>    <dbl> <chr>  <chr>   <chr>                 <chr>               <chr>         
    #>  1    70 Female Hispan… No                    <NA>                <NA>          
    #>  2    54 Female White   No                    <NA>                <NA>          
    #>  3    74 Male   White   No                    <NA>                <NA>          
    #>  4    73 Female Other   Yes                   No                  No            
    #>  5    48 Female White   No                    Yes                 Yes           
    #>  6    58 Male   White   No                    Yes                 Yes           
    #>  7    35 Female White   Yes                   <NA>                <NA>          
    #>  8    74 Female White   No                    <NA>                <NA>          
    #>  9    63 Female White   No                    No                  No            
    #> 10    64 Male   White   Yes                   <NA>                <NA>          
    #> # … with 81,412 more rows
…
Let’s now look at `age`.

``` r
age_count <- function(var) {
  naes %>% 
    drop_na({{var}}) %>% 
    count(age) %>% 
    arrange(desc(age))
}

age_count(gayFavorStateMarriage)
```

    #> # A tibble: 81 x 2
    #>      age     n
    #>    <dbl> <int>
    #>  1    97     1
    #>  2    96     2
    #>  3    95     3
    #>  4    94     3
    #>  5    93     4
    #>  6    92    10
    #>  7    91    11
    #>  8    90    22
    #>  9    89    21
    #> 10    88    30
    #> # … with 71 more rows

``` r
age_count(gayKnowSomeone)
```

    #> # A tibble: 81 x 2
    #>      age     n
    #>    <dbl> <int>
    #>  1    97     1
    #>  2    96     3
    #>  3    95     2
    #>  4    94     5
    #>  5    93    10
    #>  6    92    11
    #>  7    91    20
    #>  8    90    26
    #>  9    89    27
    #> 10    88    36
    #> # … with 71 more rows
…
