…
### Index and indicator variables

Data

``` r
data <- 
  file_data %>% 
  read_csv() %>% 
  drop_na(age, gayFavorStateMarriage) %>% 
  select(age, gayFavorStateMarriage)

data  
```

    #> # A tibble: 20,455 x 2
    #>      age gayFavorStateMarriage
    #>    <dbl> <chr>                
    #>  1    73 No                   
    #>  2    48 Yes                  
    #>  3    58 Yes                  
    #>  4    63 No                   
    #>  5    29 No                   
    #>  6    56 Yes                  
    #>  7    70 No                   
    #>  8    45 No                   
    #>  9    64 No                   
    #> 10    42 Yes                  
    #> # … with 20,445 more rows
…
    #>    Min. 1st Qu.  Median    Mean 3rd Qu.    Max. 
    #>    18.0    35.0    47.0    47.8    59.0    97.0

`age` ranges from 18 to 97.

``` r
data %>% 
  count(age) %>% 
  arrange(desc(age))
```

    #> # A tibble: 80 x 2
    #>      age     n
    #>    <dbl> <int>
    #>  1    97     1
    #>  2    96     2
    #>  3    95     3
    #>  4    94     3
    #>  5    93     4
    #>  6    92    10
    #>  7    91    11
    #>  8    90    22
    #>  9    89    21
    #> 10    88    30
    #> # … with 70 more rows
…
data <- 
  data %>% 
  mutate(age = if_else(age >= age_max , age_max, age)) %>%
  group_by(age) %>% 
  summarize(favor = sum(gayFavorStateMarriage == "Yes") / n()) %>% 
  mutate(
    age_bin = cut(age, breaks = c(min(age) - 1, seq(29, 79, 10), age_max))
  )

data
```

    #> # A tibble: 74 x 3
    #>      age favor age_bin
    #>  * <dbl> <dbl> <fct>  
    #>  1    18 0.486 (17,29]
    #>  2    19 0.5   (17,29]
    #>  3    20 0.472 (17,29]
    #>  4    21 0.463 (17,29]
    #>  5    22 0.453 (17,29]
    #>  6    23 0.463 (17,29]
    #>  7    24 0.458 (17,29]
    #>  8    25 0.506 (17,29]
    #>  9    26 0.494 (17,29]
    #> 10    27 0.406 (17,29]
    #> # … with 64 more rows
…
