…
# Run common code
source(file_common)
```

# 15 Other generalized linear models

## 15.10 Exercises

``` r
risky <- read_csv(file_risky)

risky
```

    #> # A tibble: 434 x 6
    #>    sex   couples women_alone bs_hiv   bupacts fupacts
    #>    <chr>   <dbl>       <dbl> <chr>      <dbl>   <dbl>
    #>  1 woman       0           1 negative       7      32
    #>  2 woman       0           0 negative       2       5
    #>  3 woman       0           0 positive       0      15
    #>  4 woman       0           0 negative      24       9
    #>  5 woman       1           0 negative       2       2
    #>  6 woman       1           0 negative      15       4
    #>  7 woman       1           0 positive       9       2
    #>  8 woman       0           1 positive       9       1
    #>  9 woman       0           0 positive       2       0
    #> 10 woman       0           1 positive      40       0
    #> # … with 424 more rows
