…
We are only interested in conflicts where we know the peacekeeper
status.

``` r
peace %>% 
  filter(is.na(peacekeepers)) %>% 
  select(id, cname, peacekeepers, cfdate, faildate, outcome, pk_dum, pkop)
```

    #> # A tibble: 13 x 8
    #>       id cname           peacekeepers cfdate     faildate   outcome pk_dum  pkop
    #>    <dbl> <chr>           <lgl>        <date>     <date>     <fct>    <dbl> <dbl>
    #>  1    20 Afghanistan-Ta… NA           NA         NA         <NA>        NA    NA
    #>  2    45 Algeria-GIA/GS… NA           NA         NA         <NA>        NA    NA
    #>  3    75 Angola          NA           NA         NA         <NA>        NA    NA
    #>  4   200 Burundi         NA           NA         NA         <NA>        NA    NA
    #>  5   255 Chad            NA           NA         NA         <NA>        NA    NA
    #>  6   300 Colombia        NA           NA         NA         <NA>        NA    NA
    #>  7   375 CongoD.R./Zaire NA           NA         NA         <NA>        NA    NA
    #>  8   630 India-Kashmir   NA           NA         NA         <NA>        NA    NA
    #>  9   685 Indonesia-Aceh  NA           NA         NA         <NA>        NA    NA
    #> 10   855 Liberia         NA           NA         NA         <NA>        NA    NA
    #> # … with 3 more rows
…
