…
n <- 50
a <- 2
b <- 3

data_1 <- 
  tibble(
    x = rnorm(n, mean = -a / b, sd = 4 / b),
    y = rbinom(n, size = 1, prob = plogis(a + b * x))
  )

data_1
```

    #> # A tibble: 50 x 2
    #>        x     y
    #>    <dbl> <int>
    #>  1 -2.17     0
    #>  2 -3.84     0
    #>  3 -1.30     0
    #>  4 -1.29     0
    #>  5 -1.45     0
    #>  6 -3.41     0
    #>  7  1.15     1
    #>  8 -2.55     0
    #>  9 -1.89     0
    #> 10 -3.36     0
    #> # … with 40 more rows
…
