…
# 12 Transformation and regression

## 12.6 Building and comparing regression models for prediction

### Example predicting the yields of mesquite bushes

Data

``` r
mesquite <- read_table2(file_mesquite)

mesquite
```

    #> # A tibble: 46 x 8
    #>      obs group diam1 diam2 total_height canopy_height density weight
    #>    <dbl> <chr> <dbl> <dbl>        <dbl>         <dbl>   <dbl>  <dbl>
    #>  1     1 MCD     1.8  1.15         1.3           1          1   401.
    #>  2     2 MCD     1.7  1.35         1.35          1.33       1   514.
    #>  3     3 MCD     2.8  2.55         2.16          0.6        1  1179.
    #>  4     4 MCD     1.3  0.85         1.8           1.2        1   308 
    #>  5     5 MCD     3.3  1.9          1.55          1.05       1   855.
    #>  6     6 MCD     1.4  1.4          1.2           1          1   269.
    #>  7     7 MCD     1.5  0.5          1             0.9        1   156.
    #>  8     8 MCD     3.9  2.3          1.7           1.3        2  1253.
    #>  9     9 MCD     1.8  1.35         0.8           0.6        1   328 
    #> 10    10 MCD     2.1  1.6          1.2           0.8        1   615.
    #> # … with 36 more rows
…
