…
poll
```

    #> # A tibble: 778 x 2
    #>    party      vote 
    #>    <chr>      <chr>
    #>  1 Republican Trump
    #>  2 Republican Trump
    #>  3 Republican Trump
    #>  4 Republican Trump
    #>  5 Republican Trump
    #>  6 Republican Trump
    #>  7 Republican Trump
    #>  8 Republican Trump
    #>  9 Republican Trump
    #> 10 Republican Trump
    #> # … with 768 more rows
…
