…
# 11 Assumptions, diagnostics, and model evaluation

## 11.4 Comparing data to replications from a fitted model

### Example: simulation-based checking of a fitted normal distribution

Data

``` r
newcomb <- read_table2(file_newcomb)

newcomb
```

    #> # A tibble: 66 x 1
    #>        y
    #>    <dbl>
    #>  1    28
    #>  2    26
    #>  3    33
    #>  4    24
    #>  5    34
    #>  6   -44
    #>  7    27
    #>  8    16
    #>  9    40
    #> 10    -2
    #> # … with 56 more rows
…
n_sims <- nrow(sims)
n_newcomb <- nrow(newcomb)

y_rep_tidy <- 
  sims %>% 
  pmap_dfr(
    ~ tibble(y = rnorm(n_newcomb, mean = .x, sd = .y)),
    .id = "rep"
  ) %>% 
  mutate(rep = as.integer(rep))

y_rep_tidy
```

    #> # A tibble: 264,000 x 2
    #>      rep     y
    #>    <int> <dbl>
    #>  1     1 30.5 
    #>  2     1 22.3 
    #>  3     1 18.1 
    #>  4     1 49.0 
    #>  5     1 20.3 
    #>  6     1  1.67
    #>  7     1 23.7 
    #>  8     1 52.8 
    #>  9     1  6.02
    #> 10     1 31.9 
    #> # … with 263,990 more rows
…
