…
congress
```

    #> # A tibble: 435 x 9
    #>    inc86      inc88      inc90        v86   v88   v90 v86_adj v88_adj v90_adj
    #>    <chr>      <chr>      <chr>      <dbl> <dbl> <dbl>   <dbl>   <dbl>   <dbl>
    #>  1 Democrat   Democrat   Democrat   0.745 0.772 0.714   0.745   0.772   0.714
    #>  2 Democrat   Democrat   Democrat   0.674 0.636 0.597   0.674   0.636   0.597
    #>  3 Democrat   Democrat   Open       0.696 0.665 0.521   0.696   0.665   0.521
    #>  4 Republican Republican Republican 0.465 0.274 0.234   0.465   0.274   0.234
    #>  5 Republican Republican Open       0.391 0.264 0.477   0.391   0.264   0.477
    #>  6 Republican Republican Republican 0.358 0.334 0.256   0.358   0.334   0.256
    #>  7 Open       Democrat   Open       0.549 0.632 0.602   0.549   0.632   0.602
    #>  8 Republican Republican Republican 0.227 0.338 0.490   0.227   0.338   0.490
    #>  9 Republican Republican Republican 0.222 0.173 0.224   0.222   0.173   0.224
    #> 10 Democrat   Democrat   Democrat   0.659 1     1       0.659   0.75    0.75 
    #> # … with 425 more rows
…
