…
Data

``` r
# data(roaches)
roaches <-
  roaches %>%
  as_tibble() %>% 
  mutate(roach100 = roach1 / 100) %>%
  relocate(roach100, .after = roach1)

roaches
```

    #> # A tibble: 262 x 6
    #>        y roach1 roach100 treatment senior exposure2
    #>    <int>  <dbl>    <dbl>     <int>  <int>     <dbl>
    #>  1   153 308      3.08           1      0      0.8 
    #>  2   127 331.     3.31           1      0      0.6 
    #>  3     7   1.67   0.0167         1      0      1   
    #>  4     7   3      0.03           1      0      1   
    #>  5     0   2      0.02           1      0      1.14
    #>  6     0   0      0              1      0      1   
    #>  7    73  70      0.7            1      0      0.8 
    #>  8    24  64.6    0.646          1      0      1.14
    #>  9     2   1      0.01           0      0      1   
    #> 10     2  14      0.14           0      0      1.14
    #> # … with 252 more rows
…
